[
  {
    "_id": {
      "$oid": "571e32a7d676c012884dd74a"
    },
    "sensor_ip": "10.0.14.80",
    "type": "ids",
    "rule": "1:2018904",
    "sig_text": "ET INFO Session Traversal Utilities for NAT (STUN Binding Request obsolete rfc 3489 CHANGE-REQUEST attribute change IP flag false change port flag false }",
    "priority": 3,
    "event_id": "105025960",
    "cnt": 1,
    "sensor_id": "9",
    "dmac": "00:08:e3:ff:fc:28",
    "dpt": 3478,
    "dst": "217.10.68.152",
    "proto": "UDP",
    "logdate": {
      "$date": "2016-04-25T18:05:28.003Z"
    },
    "smac": "fc:aa:14:38:05:26",
    "spt": 63857,
    "src": "10.0.9.128",
    "tags": [
      "info"
    ],
    "group": "info",
    "homenet_address": [
      "10.0.9.128"
    ],
    "direction": "src"
  },
  {
    "_id": {
      "$oid": "571e32a7d676c012884dd74b"
    },
    "sensor_ip": "10.0.14.80",
    "type": "ids",
    "rule": "1:2018904",
    "sig_text": "ET INFO Session Traversal Utilities for NAT (STUN Binding Request obsolete rfc 3489 CHANGE-REQUEST attribute change IP flag false change port flag false }",
    "priority": 3,
    "event_id": "105025961",
    "cnt": 1,
    "sensor_id": "9",
    "dmac": "00:08:e3:ff:fc:28",
    "dpt": 3478,
    "dst": "217.10.68.152",
    "proto": "UDP",
    "logdate": {
      "$date": "2016-04-25T18:05:30.805Z"
    },
    "smac": "fc:aa:14:33:ab:ce",
    "spt": 63902,
    "src": "10.0.15.171",
    "tags": [
      "info"
    ],
    "group": "info",
    "homenet_address": [
      "10.0.15.171"
    ],
    "direction": "src"
  },
  {
    "_id": {
      "$oid": "571e32a7d676c012884dd74c"
    },
    "sensor_ip": "10.0.14.80",
    "type": "ids",
    "rule": "1:3001585",
    "sig_text": "AM Exploit Apache_Tomcat_FileUpload_Content-Type_Header_Infinite_Loop",
    "priority": 1,
    "event_id": "105025962",
    "cnt": 1,
    "sensor_id": "9",
    "dmac": "50:46:5d:70:62:00",
    "dpt": 58723,
    "dst": "10.0.14.50",
    "proto": "TCP",
    "logdate": {
      "$date": "2016-04-25T18:05:27.818Z"
    },
    "smac": "00:08:e3:ff:fc:28",
    "spt": 3128,
    "src": "10.0.4.245",
    "homenet_address": [
      "10.0.14.50"
    ],
    "direction": "dst"
  },
  {
    "_id": {
      "$oid": "571e32a7d676c012884dd74d"
    },
    "sensor_ip": "10.0.14.80",
    "type": "ids",
    "rule": "1:2018904",
    "sig_text": "ET INFO Session Traversal Utilities for NAT (STUN Binding Request obsolete rfc 3489 CHANGE-REQUEST attribute change IP flag false change port flag false }",
    "priority": 3,
    "event_id": "105025964",
    "cnt": 1,
    "sensor_id": "9",
    "dmac": "00:08:e3:ff:fc:28",
    "dpt": 43942,
    "dst": "10.0.4.245",
    "proto": "UDP",
    "logdate": {
      "$date": "2016-04-25T18:05:28.696Z"
    },
    "smac": "10:bf:48:e1:e2:a7",
    "spt": 36009,
    "src": "10.0.14.139",
    "tags": [
      "info"
    ],
    "group": "info",
    "homenet_address": [
      "10.0.14.139"
    ],
    "direction": "src"
  },
  {
    "_id": {
      "$oid": "571e32b6d676c012884dd74e"
    },
    "sensor_ip": "10.0.14.80",
    "type": "ids",
    "rule": "1:2020565",
    "sig_text": "ET POLICY Dropbox DNS Lookup - Possible Offsite File Backup in Use",
    "priority": 1,
    "event_id": "105025969",
    "cnt": 1,
    "sensor_id": "9",
    "dmac": "00:15:5d:04:de:0a",
    "dpt": 53,
    "dst": "10.0.26.100",
    "proto": "UDP",
    "logdate": {
      "$date": "2016-04-25T18:05:42.275Z"
    },
    "smac": "00:0c:29:64:e4:f7",
    "spt": 52741,
    "src": "11.0.1.224",
    "tags": [
      "policy"
    ],
    "group": "policy",
    "homenet_address": [
      "10.0.26.100"
    ],
    "direction": "dst"
  },
  {
    "_id": {
      "$oid": "571e32b6d676c012884dd74f"
    },
    "sensor_ip": "10.0.14.80",
    "type": "ids",
    "rule": "1:2020565",
    "sig_text": "ET POLICY Dropbox DNS Lookup - Possible Offsite File Backup in Use",
    "priority": 1,
    "event_id": "105025970",
    "cnt": 1,
    "sensor_id": "9",
    "dmac": "00:15:5d:04:de:0a",
    "dpt": 53,
    "dst": "10.0.26.100",
    "proto": "UDP",
    "logdate": {
      "$date": "2016-04-25T18:05:42.275Z"
    },
    "smac": "00:0c:29:64:e4:f7",
    "spt": 52741,
    "src": "11.0.1.224",
    "tags": [
      "policy"
    ],
    "group": "policy",
    "homenet_address": [
      "10.0.26.100"
    ],
    "direction": "dst"
  },
  {
    "_id": {
      "$oid": "571e32bbd676c012884dd750"
    },
    "sensor_ip": "10.0.14.80",
    "type": "ids",
    "rule": "1:2014297",
    "sig_text": "ET POLICY Vulnerable Java Version 1.7.x Detected",
    "priority": 2,
    "event_id": "105025971",
    "cnt": 1,
    "sensor_id": "9",
    "dmac": "00:15:5d:02:09:3f",
    "dpt": 80,
    "dst": "40.68.42.218",
    "proto": "TCP",
    "logdate": {
      "$date": "2016-04-25T18:05:47.246Z"
    },
    "smac": "00:15:5d:04:e1:4c",
    "spt": 50290,
    "src": "10.0.4.165",
    "tags": [
      "policy"
    ],
    "group": "policy",
    "homenet_address": [
      "10.0.4.165"
    ],
    "direction": "src"
  },
  {
    "_id": {
      "$oid": "571e32c5d676c012884dd751"
    },
    "sensor_ip": "10.0.14.80",
    "type": "ids",
    "rule": "1:2018904",
    "sig_text": "ET INFO Session Traversal Utilities for NAT (STUN Binding Request obsolete rfc 3489 CHANGE-REQUEST attribute change IP flag false change port flag false }",
    "priority": 3,
    "event_id": "105025973",
    "cnt": 1,
    "sensor_id": "9",
    "dmac": "00:08:e3:ff:fc:28",
    "dpt": 43942,
    "dst": "10.0.4.245",
    "proto": "UDP",
    "logdate": {
      "$date": "2016-04-25T18:05:58.707Z"
    },
    "smac": "10:bf:48:e1:e2:a7",
    "spt": 36009,
    "src": "10.0.14.139",
    "tags": [
      "info"
    ],
    "group": "info",
    "homenet_address": [
      "10.0.14.139"
    ],
    "direction": "src"
  },
  {
    "_id": {
      "$oid": "571e32cad676c012884dd752"
    },
    "sensor_ip": "10.0.14.80",
    "type": "ids",
    "rule": "1:2022024",
    "sig_text": "ET VOIP H.323 in Q.931 Call Setup - Inbound",
    "priority": 3,
    "event_id": "105025974",
    "cnt": 1,
    "sensor_id": "9",
    "dmac": "00:17:a4:3b:68:3f",
    "dpt": 1720,
    "dst": "10.0.3.3",
    "proto": "TCP",
    "logdate": {
      "$date": "2016-04-25T18:06:05.993Z"
    },
    "smac": "00:1a:6c:1f:15:e0",
    "spt": 24358,
    "src": "10.50.68.114",
    "homenet_address": [
      "10.0.3.3"
    ],
    "direction": "dst"
  },
  {
    "_id": {
      "$oid": "571e32cfd676c012884dd753"
    },
    "sensor_ip": "10.0.14.80",
    "type": "ids",
    "rule": "1:2001583",
    "sig_text": "ET SCAN Behavioral Unusual Port 1433 traffic, Potential Scan or Infection",
    "priority": 3,
    "event_id": "105025975",
    "cnt": 1,
    "sensor_id": "9",
    "dmac": "50:46:5d:74:2c:f3",
    "dpt": 1433,
    "dst": "10.0.8.49",
    "proto": "TCP",
    "logdate": {
      "$date": "2016-04-25T18:06:09.159Z"
    },
    "smac": "00:08:e3:ff:fc:28",
    "spt": 52687,
    "src": "10.0.2.73",
    "tags": [
      "scan_attempt"
    ],
    "group": "scan",
    "homenet_address": [
      "10.0.2.73",
      "10.0.8.49"
    ],
    "direction": "both"
  },
  {
    "_id": {
      "$oid": "571e32d4d676c012884dd754"
    },
    "sensor_ip": "10.0.14.80",
    "type": "ids",
    "rule": "1:2100384",
    "sig_text": "GPL ICMP_INFO PING",
    "priority": 3,
    "event_id": "105025977",
    "cnt": 328,
    "sensor_id": "9",
    "dmac": "02:bf:0a:00:04:58",
    "dpt": 0,
    "dst": "10.0.4.88",
    "proto": "ICMP",
    "logdate": {
      "$date": "2016-04-25T18:05:11.945Z"
    },
    "smac": "68:05:ca:15:f3:a3",
    "spt": 0,
    "src": "13.0.0.86",
    "tags": [
      "info"
    ],
    "group": "info",
    "homenet_address": [
      "10.0.4.88"
    ],
    "direction": "dst"
  },
  {
    "_id": {
      "$oid": "571e32d4d676c012884dd755"
    },
    "sensor_ip": "10.0.14.80",
    "type": "ids",
    "rule": "1:2018908",
    "sig_text": "ET INFO Session Traversal Utilities for NAT (STUN Binding Response }",
    "priority": 3,
    "event_id": "105025978",
    "cnt": 1,
    "sensor_id": "9",
    "dmac": "00:08:e3:ff:fc:28",
    "dpt": 59657,
    "dst": "10.0.30.108",
    "proto": "UDP",
    "logdate": {
      "$date": "2016-04-25T18:06:12.433Z"
    },
    "smac": "00:15:5d:02:09:3f",
    "spt": 3478,
    "src": "217.10.68.152",
    "tags": [
      "info"
    ],
    "group": "info",
    "homenet_address": [
      "10.0.30.108"
    ],
    "direction": "dst"
  },
  {
    "_id": {
      "$oid": "571e32ded676c012884dd756"
    },
    "sensor_ip": "10.0.14.80",
    "type": "ids",
    "rule": "1:2018904",
    "sig_text": "ET INFO Session Traversal Utilities for NAT (STUN Binding Request obsolete rfc 3489 CHANGE-REQUEST attribute change IP flag false change port flag false }",
    "priority": 3,
    "event_id": "105025980",
    "cnt": 1,
    "sensor_id": "9",
    "dmac": "00:08:e3:ff:fc:28",
    "dpt": 47737,
    "dst": "10.0.4.245",
    "proto": "UDP",
    "logdate": {
      "$date": "2016-04-25T18:06:23.764Z"
    },
    "smac": "30:85:a9:94:93:b9",
    "spt": 39488,
    "src": "10.0.14.60",
    "tags": [
      "info"
    ],
    "group": "info",
    "homenet_address": [
      "10.0.14.60"
    ],
    "direction": "src"
  },
  {
    "_id": {
      "$oid": "571e32ded676c012884dd757"
    },
    "sensor_ip": "10.0.14.80",
    "type": "ids",
    "rule": "1:2007994",
    "sig_text": "ET MALWARE Suspicious User-Agent (1 space }",
    "priority": 1,
    "event_id": "105025981",
    "cnt": 1,
    "sensor_id": "9",
    "dmac": "00:15:5d:02:09:3f",
    "dpt": 80,
    "dst": "10.0.4.245",
    "proto": "TCP",
    "logdate": {
      "$date": "2016-04-25T18:06:24.666Z"
    },
    "smac": "00:08:e3:ff:fc:28",
    "spt": 60273,
    "src": "10.0.9.130",
    "tags": [
      "malware"
    ],
    "group": "malware",
    "homenet_address": [
      "10.0.9.130"
    ],
    "direction": "src"
  },
  {
    "_id": {
      "$oid": "571e32ded676c012884dd758"
    },
    "sensor_ip": "10.0.14.80",
    "type": "ids",
    "rule": "1:2001581",
    "sig_text": "ET SCAN Behavioral Unusual Port 135 traffic, Potential Scan or Infection",
    "priority": 3,
    "event_id": "105025984",
    "cnt": 1,
    "sensor_id": "9",
    "dmac": "00:15:5d:04:df:1b",
    "dpt": 135,
    "dst": "10.0.20.2",
    "proto": "TCP",
    "logdate": {
      "$date": "2016-04-25T18:06:25.940Z"
    },
    "smac": "00:15:5d:04:e1:42",
    "spt": 60108,
    "src": "10.0.7.103",
    "tags": [
      "scan_attempt"
    ],
    "group": "scan",
    "homenet_address": [
      "10.0.7.103",
      "10.0.20.2"
    ],
    "direction": "both"
  },
  {
    "_id": {
      "$oid": "571e32f2d676c012884dd759"
    },
    "sensor_ip": "10.0.14.80",
    "type": "ids",
    "rule": "1:3001217",
    "sig_text": "AM POLICY Requests Suspicious Python's User Agent",
    "priority": 1,
    "event_id": "105025992",
    "cnt": 1,
    "sensor_id": "9",
    "dmac": "00:15:5d:04:95:11",
    "dpt": 8090,
    "dst": "10.10.10.105",
    "proto": "TCP",
    "logdate": {
      "$date": "2016-04-25T18:06:44.132Z"
    },
    "smac": "00:0c:29:56:af:41",
    "spt": 37692,
    "src": "10.0.24.92",
    "homenet_address": [
      "10.0.24.92"
    ],
    "direction": "src"
  },
  {
    "_id": {
      "$oid": "571e32f2d676c012884dd75a"
    },
    "sensor_ip": "10.0.14.80",
    "type": "ids",
    "rule": "1:3000514",
    "sig_text": "AM USER_AGENTS python-requests Suspicious User Agent",
    "priority": 1,
    "event_id": "105025993",
    "cnt": 1,
    "sensor_id": "9",
    "dmac": "00:15:5d:04:95:11",
    "dpt": 8090,
    "dst": "10.10.10.105",
    "proto": "TCP",
    "logdate": {
      "$date": "2016-04-25T18:06:44.132Z"
    },
    "smac": "00:0c:29:56:af:41",
    "spt": 37692,
    "src": "10.0.24.92",
    "tags": [
      "info"
    ],
    "group": "info",
    "homenet_address": [
      "10.0.24.92"
    ],
    "direction": "src"
  },
  {
    "_id": {
      "$oid": "571e32f7d676c012884dd75b"
    },
    "sensor_ip": "10.0.14.80",
    "type": "ids",
    "rule": "1:2009702",
    "sig_text": "ET POLICY DNS Update From External net",
    "priority": 1,
    "event_id": "105025996",
    "cnt": 1,
    "sensor_id": "9",
    "dmac": "20:cf:30:7f:3c:59",
    "dpt": 53,
    "dst": "10.0.26.101",
    "proto": "UDP",
    "logdate": {
      "$date": "2016-04-25T18:06:47.652Z"
    },
    "smac": "00:0c:29:64:e4:f7",
    "spt": 54622,
    "src": "88.135.122.109",
    "tags": [
      "policy"
    ],
    "group": "policy",
    "homenet_address": [
      "10.0.26.101"
    ],
    "direction": "dst"
  },
  {
    "_id": {
      "$oid": "571e32fcd676c012884dd75c"
    },
    "sensor_ip": "10.0.14.80",
    "type": "ids",
    "rule": "1:3001010",
    "sig_text": "AM DNS Query for Free DNS Service *.changeip.org Possible Malware Activity",
    "priority": 2,
    "event_id": "105025998",
    "cnt": 1,
    "sensor_id": "9",
    "dmac": "00:15:5d:04:de:0a",
    "dpt": 53,
    "dst": "10.0.26.100",
    "proto": "UDP",
    "logdate": {
      "$date": "2016-04-25T18:06:55.692Z"
    },
    "smac": "00:0c:29:64:e4:f7",
    "spt": 53831,
    "src": "10.0.3.200",
    "tags": [
      "info"
    ],
    "group": "info",
    "homenet_address": [
      "10.0.3.200",
      "10.0.26.100"
    ],
    "direction": "both"
  },
  {
    "_id": {
      "$oid": "571e32fcd676c012884dd75d"
    },
    "sensor_ip": "10.0.14.80",
    "type": "ids",
    "rule": "1:3001010",
    "sig_text": "AM DNS Query for Free DNS Service *.changeip.org Possible Malware Activity",
    "priority": 2,
    "event_id": "105025999",
    "cnt": 1,
    "sensor_id": "9",
    "dmac": "00:15:5d:04:de:0a",
    "dpt": 53,
    "dst": "10.0.26.100",
    "proto": "UDP",
    "logdate": {
      "$date": "2016-04-25T18:06:55.692Z"
    },
    "smac": "00:0c:29:64:e4:f7",
    "spt": 53831,
    "src": "10.0.3.200",
    "tags": [
      "info"
    ],
    "group": "info",
    "homenet_address": [
      "10.0.3.200",
      "10.0.26.100"
    ],
    "direction": "both"
  },
  {
    "_id": {
      "$oid": "571e3301d676c012884dd75e"
    },
    "sensor_ip": "10.0.14.80",
    "type": "ids",
    "rule": "1:2009702",
    "sig_text": "ET POLICY DNS Update From External net",
    "priority": 1,
    "event_id": "105026000",
    "cnt": 1,
    "sensor_id": "9",
    "dmac": "00:15:5d:04:de:0a",
    "dpt": 53,
    "dst": "10.0.26.100",
    "proto": "UDP",
    "logdate": {
      "$date": "2016-04-25T18:07:00.543Z"
    },
    "smac": "00:0c:29:64:e4:f7",
    "spt": 62349,
    "src": "88.135.122.109",
    "tags": [
      "policy"
    ],
    "group": "policy",
    "homenet_address": [
      "10.0.26.100"
    ],
    "direction": "dst"
  },
  {
    "_id": {
      "$oid": "571e3306d676c012884dd75f"
    },
    "sensor_ip": "10.0.14.80",
    "type": "ids",
    "rule": "1:2014297",
    "sig_text": "ET POLICY Vulnerable Java Version 1.7.x Detected",
    "priority": 2,
    "event_id": "105026001",
    "cnt": 1,
    "sensor_id": "9",
    "dmac": "00:15:5d:02:09:3f",
    "dpt": 80,
    "dst": "40.68.42.218",
    "proto": "TCP",
    "logdate": {
      "$date": "2016-04-25T18:07:03.356Z"
    },
    "smac": "00:08:e3:ff:fc:28",
    "spt": 52016,
    "src": "10.0.16.45",
    "tags": [
      "policy"
    ],
    "group": "policy",
    "homenet_address": [
      "10.0.16.45"
    ],
    "direction": "src"
  },
  {
    "_id": {
      "$oid": "571e3306d676c012884dd760"
    },
    "sensor_ip": "10.0.14.80",
    "type": "ids",
    "rule": "1:2014297",
    "sig_text": "ET POLICY Vulnerable Java Version 1.7.x Detected",
    "priority": 2,
    "event_id": "105026002",
    "cnt": 1,
    "sensor_id": "9",
    "dmac": "00:15:5d:02:09:3f",
    "dpt": 80,
    "dst": "40.68.42.218",
    "proto": "TCP",
    "logdate": {
      "$date": "2016-04-25T18:07:03.370Z"
    },
    "smac": "00:08:e3:ff:fc:28",
    "spt": 52018,
    "src": "10.0.16.45",
    "tags": [
      "policy"
    ],
    "group": "policy",
    "homenet_address": [
      "10.0.16.45"
    ],
    "direction": "src"
  },
  {
    "_id": {
      "$oid": "571e330bd676c012884dd761"
    },
    "sensor_ip": "10.0.14.80",
    "type": "ids",
    "rule": "1:2001583",
    "sig_text": "ET SCAN Behavioral Unusual Port 1433 traffic, Potential Scan or Infection",
    "priority": 3,
    "event_id": "105026005",
    "cnt": 1,
    "sensor_id": "9",
    "dmac": "00:08:e3:ff:fc:28",
    "dpt": 1433,
    "dst": "10.0.8.49",
    "proto": "TCP",
    "logdate": {
      "$date": "2016-04-25T18:07:09.071Z"
    },
    "smac": "50:46:5d:74:2d:61",
    "spt": 52718,
    "src": "10.0.2.73",
    "tags": [
      "scan_attempt"
    ],
    "group": "scan",
    "homenet_address": [
      "10.0.2.73",
      "10.0.8.49"
    ],
    "direction": "both"
  },
  {
    "_id": {
      "$oid": "571e3310d676c012884dd762"
    },
    "sensor_ip": "10.0.14.80",
    "type": "ids",
    "rule": "1:2100384",
    "sig_text": "GPL ICMP_INFO PING",
    "priority": 3,
    "event_id": "105026007",
    "cnt": 445,
    "sensor_id": "9",
    "dmac": "02:bf:0a:00:04:58",
    "dpt": 0,
    "dst": "10.0.4.88",
    "proto": "ICMP",
    "logdate": {
      "$date": "2016-04-25T18:06:13.004Z"
    },
    "smac": "68:05:ca:15:f3:a3",
    "spt": 0,
    "src": "13.0.0.86",
    "tags": [
      "info"
    ],
    "group": "info",
    "homenet_address": [
      "10.0.4.88"
    ],
    "direction": "dst"
  },
  {
    "_id": {
      "$oid": "571e3310d676c012884dd763"
    },
    "sensor_ip": "10.0.14.80",
    "type": "ids",
    "rule": "1:2012648",
    "sig_text": "ET POLICY Dropbox Client Broadcasting",
    "priority": 1,
    "event_id": "105026009",
    "cnt": 1,
    "sensor_id": "9",
    "dmac": "ff:ff:ff:ff:ff:ff",
    "dpt": 17500,
    "dst": "10.0.8.255",
    "proto": "UDP",
    "logdate": {
      "$date": "2016-04-25T18:07:15.738Z"
    },
    "smac": "74:d4:35:f3:b9:e7",
    "spt": 17500,
    "src": "10.0.8.34",
    "tags": [
      "policy"
    ],
    "group": "policy",
    "homenet_address": [
      "10.0.8.34",
      "10.0.8.255"
    ],
    "direction": "both"
  },
  {
    "_id": {
      "$oid": "571e331ad676c012884dd764"
    },
    "sensor_ip": "10.0.14.80",
    "type": "ids",
    "rule": "1:3000945",
    "sig_text": "AM DNS Query for Free DNS Service *.2waky.com Possible Malware Activity",
    "priority": 2,
    "event_id": "105026010",
    "cnt": 1,
    "sensor_id": "9",
    "dmac": "00:15:5d:04:de:0a",
    "dpt": 53,
    "dst": "10.0.26.100",
    "proto": "UDP",
    "logdate": {
      "$date": "2016-04-25T18:07:25.681Z"
    },
    "smac": "00:0c:29:64:e4:f7",
    "spt": 53641,
    "src": "11.0.2.242",
    "tags": [
      "info"
    ],
    "group": "info",
    "homenet_address": [
      "10.0.26.100"
    ],
    "direction": "dst"
  },
  {
    "_id": {
      "$oid": "571e331ad676c012884dd765"
    },
    "sensor_ip": "10.0.14.80",
    "type": "ids",
    "rule": "1:3000945",
    "sig_text": "AM DNS Query for Free DNS Service *.2waky.com Possible Malware Activity",
    "priority": 2,
    "event_id": "105026011",
    "cnt": 1,
    "sensor_id": "9",
    "dmac": "00:15:5d:04:de:0a",
    "dpt": 53,
    "dst": "10.0.26.100",
    "proto": "UDP",
    "logdate": {
      "$date": "2016-04-25T18:07:25.681Z"
    },
    "smac": "00:0c:29:64:e4:f7",
    "spt": 53641,
    "src": "11.0.2.242",
    "tags": [
      "info"
    ],
    "group": "info",
    "homenet_address": [
      "10.0.26.100"
    ],
    "direction": "dst"
  },
  {
    "_id": {
      "$oid": "571e331ad676c012884dd766"
    },
    "sensor_ip": "10.0.14.80",
    "type": "ids",
    "rule": "1:2019401",
    "sig_text": "ET POLICY Vulnerable Java Version 1.8.x Detected",
    "priority": 2,
    "event_id": "105026012",
    "cnt": 1,
    "sensor_id": "9",
    "dmac": "00:15:5d:02:09:3f",
    "dpt": 80,
    "dst": "40.68.42.218",
    "proto": "TCP",
    "logdate": {
      "$date": "2016-04-25T18:07:24.123Z"
    },
    "smac": "00:15:5d:04:e0:30",
    "spt": 56123,
    "src": "10.0.4.237",
    "tags": [
      "policy"
    ],
    "group": "policy",
    "homenet_address": [
      "10.0.4.237"
    ],
    "direction": "src"
  },
  {
    "_id": {
      "$oid": "571e331ad676c012884dd767"
    },
    "sensor_ip": "10.0.14.80",
    "type": "ids",
    "rule": "1:2019401",
    "sig_text": "ET POLICY Vulnerable Java Version 1.8.x Detected",
    "priority": 2,
    "event_id": "105026013",
    "cnt": 1,
    "sensor_id": "9",
    "dmac": "00:15:5d:02:09:3f",
    "dpt": 80,
    "dst": "40.68.42.218",
    "proto": "TCP",
    "logdate": {
      "$date": "2016-04-25T18:07:24.755Z"
    },
    "smac": "00:15:5d:04:e0:30",
    "spt": 56387,
    "src": "10.0.4.237",
    "tags": [
      "policy"
    ],
    "group": "policy",
    "homenet_address": [
      "10.0.4.237"
    ],
    "direction": "src"
  }
]
